lab13
…
Znajd najczciej nadawane imi dziecicie wrd chopcw w kadym
z lat 1980-2017.

df %>% 
  filter(sex=="M") %>% 
  group_by(year) %>% 
  slice_max(n) %>% 
  select(year, name)

## # A tibble: 138 x 2
## # Groups:   year [138]
##     year name 
##    <dbl> <chr>
##  1  1880 John 
##  2  1881 John 
##  3  1882 John 
##  4  1883 John 
##  5  1884 John 
##  6  1885 John 
##  7  1886 John 
##  8  1887 John 
##  9  1888 John 
## 10  1889 John 
## # ... with 128 more rows
…
